<?xml version="1.0" encoding="UTF-8"?>
<!DOCTYPE svg PUBLIC "-//W3C//DTD SVG 1.1//EN" "http://www.w3.org/Graphics/SVG/1.1/DTD/svg11.dtd">
<!-- Creator: CorelDRAW 2018 (64-Bit) -->
<svg xmlns="http://www.w3.org/2000/svg" xml:space="preserve" width="165.035mm" height="65.8178mm" version="1.1" style="shape-rendering:geometricPrecision; text-rendering:geometricPrecision; image-rendering:optimizeQuality; fill-rule:evenodd; clip-rule:evenodd"
viewBox="0 0 14898.91 5941.85"
 xmlns:xlink="http://www.w3.org/1999/xlink">
 <defs>
  <style type="text/css">
   <![CDATA[
    .fil0 {fill:#385775}
    .fil2 {fill:#4A7099}
    .fil1 {fill:#BB904B}
   ]]>
  </style>
 </defs>
 <g id="Layer_x0020_1">
  <metadata id="CorelCorpID_0Corel-Layer"/>
  <g id="_2840764540112">
   <path class="fil0" d="M12807.23 365.23c-91.06,0 -180.62,6.18 -268.78,16.94 -0.01,0.3 -0.03,0.59 -0.05,0.88 -208.99,23.73 -408.7,77.65 -594.99,156.99 0.05,4.22 0.32,8.39 0.32,12.63 0,524.74 -425.4,950.13 -950.14,950.13 -36.79,0 -73.03,-2.31 -108.73,-6.38 -176.36,316.31 -277.11,680.51 -277.11,1068.42 0,1214.75 984.79,2199.48 2199.48,2199.48 108.08,0 214.01,-7.75 317.82,-22.81 -29.75,456.87 -208.66,873 -488.56,1200.34 484.13,-157.49 893.91,-403.42 1229.24,-706 -238.79,174.05 -512.72,317.57 -822.66,418.39 239.85,-280.5 393.16,-637.09 418.65,-1028.57 -88.96,12.91 -179.73,19.55 -272.34,19.55 -882.96,0 -1623.87,-607.29 -1828.45,-1426.91 -39.46,-151.95 -60.56,-311.31 -60.56,-475.63 0,-1042.11 844.81,-1886.9 1886.92,-1886.9 242.01,0 473.12,46.06 685.74,129.07 358.03,124.85 635.01,349.63 831.49,636.16 75.35,101.75 140.46,211.46 194.38,327.45 -241.59,-897.99 -937.57,-1583.22 -2091.68,-1583.22z"/>
   <path class="fil1" d="M10993.59 1105.35c305.24,0 552.68,-247.44 552.68,-552.67 0,-305.24 -247.44,-552.68 -552.68,-552.68 -305.23,0 -552.67,247.44 -552.67,552.68 0,305.23 247.44,552.67 552.67,552.67z"/>
   <path class="fil1" d="M13839.44 1906.34c-56.64,-15.82 -113.3,-27.26 -169.9,-34.57 82.46,-235.07 237.13,-426.97 431.73,-557.55 -777.67,32.81 -1349.88,517.23 -1611.77,1085.35 240.45,-477.67 722.3,-878 1378.22,-928.63 -172.36,124.58 -306.55,303.51 -373.91,519.32 51.58,4.83 103.31,13.42 155.18,25.97 582.99,141.11 941.22,728.11 800.11,1311.12 -141.13,583.06 -728.15,941.28 -1311.13,800.17 -310.53,-75.16 -526.86,-237.03 -659.18,-445.57 136.63,241.25 371.02,433.32 716.76,529.88 636.61,177.79 1296.84,-194.15 1474.67,-830.85 177.8,-636.64 -194.17,-1296.86 -830.77,-1474.65z"/>
  </g>
  <g id="_2840764540016">
   <g>
    <polygon class="fil1" points="21.81,4800 106.69,4800 106.69,4620.2 254.51,4616.93 258.58,4578.56 106.69,4576.91 106.69,4429.85 263.87,4427.8 267.52,4386.17 21.81,4386.17 "/>
    <path class="fil1" d="M465.33 4389.84l-164.91 410.17 53.6 0 50.78 -137.41 156.34 -2 48.76 139.42 90.98 0 -153.52 -424.32 -82.03 14.16zm-45.92 231.53l0 0 65.82 -178.6 62.53 178.6 -128.35 0z"/>
    <path class="fil1" d="M1184.59 4632.3c-2.45,8.62 -5.25,18.71 -8.36,30.3 -3.1,11.59 -6.12,22.65 -9.09,33.14 -3.29,12.4 -6.79,25.08 -10.58,38.01 -3.81,-12.93 -7.58,-25.6 -11.39,-38.01 -3.24,-10.49 -6.69,-21.55 -10.31,-33.14 -3.69,-11.58 -7.02,-21.68 -10,-30.3l-67.81 -194.35 -48.77 0 -65.38 194.35c-2.96,8.62 -6.33,18.71 -10.14,30.3 -3.81,11.59 -7.43,22.65 -11,33.14 -4.03,12.4 -8.08,25.08 -12.16,38.01 -2.72,-11.57 -5.54,-23.29 -8.52,-35.18 -2.46,-10.23 -5.08,-21.2 -7.93,-32.92 -2.85,-11.71 -5.79,-22.69 -8.77,-32.96l-70.24 -246.51 -89.8 0 122.72 413.83 83.24 0 71.89 -214.16c1.89,-5.4 3.5,-10.54 4.91,-15.37 1.32,-4.83 2.54,-9.15 3.63,-12.94 1.07,-4.31 2.02,-8.22 2.83,-11.71 1.36,3.48 2.58,7.27 3.69,11.32 1.04,3.48 2.26,7.53 3.62,12.11 1.36,4.58 2.99,9.45 4.87,14.53l74.73 216.21 83.27 0 119.03 -413.83 -50.8 0 -67.4 246.12z"/>
    <path class="fil1" d="M1491.24 4389.84l-164.9 410.17 53.6 0 50.77 -137.41 156.37 -2 48.73 139.42 90.98 0 -153.51 -424.32 -82.04 14.16zm-45.92 231.53l0 0 65.82 -178.6 62.54 178.6 -128.36 0z"/>
    <path class="fil1" d="M2028.94 4595.33c-9.49,-9.58 -20.29,-17.5 -32.51,-23.85 -12.16,-6.31 -24.63,-11.97 -37.37,-16.98 -12.68,-4.97 -25.15,-9.62 -37.32,-13.93 -12.21,-4.32 -23.01,-9.01 -32.53,-14.16 -9.48,-5.09 -17.1,-11.15 -22.92,-18.15 -5.88,-7.01 -8.75,-15.76 -8.75,-26.3 0,-10.23 1.22,-18.99 3.67,-26.25 2.42,-7.27 6.36,-12.4 11.77,-15.37 5.4,-2.95 12.39,-4.91 20.93,-5.82 8.52,-0.96 16.72,-1.44 24.55,-1.44 7.31,0 15.72,0.57 25.21,1.62 9.45,1.08 19.21,2.53 29.22,4.27 10.02,1.74 19.82,3.83 29.47,6.27 9.62,2.39 18.33,4.96 26.23,7.66l12.99 -61.43c-16.57,-2.96 -33.54,-5.4 -50.99,-7.28 -17.47,-1.87 -35.83,-2.83 -55.07,-2.83 -23.8,0 -45,3.66 -63.53,10.92 -18.56,7.28 -34.23,16.42 -46.91,27.48 -12.73,11.06 -22.43,23.29 -29.04,36.79 -6.67,13.45 -9.98,26.25 -9.98,38.36 0,18.59 2.93,34.43 8.73,47.49 5.84,13.06 13.5,24.25 22.96,33.52 9.49,9.33 20.33,17.12 32.51,23.47 12.16,6.32 24.59,11.89 37.15,16.76 12.59,4.83 24.97,9.4 37.19,13.71 12.16,4.31 22.98,9.18 32.47,14.59 9.49,5.34 17.1,11.62 22.96,18.76 5.84,7.14 8.71,16.11 8.71,26.87 0,15.37 -1.97,27.77 -5.9,37.18 -3.91,9.45 -8.97,15.5 -15.25,18.2 -11.32,4.84 -28.26,7.27 -50.74,7.27 -9.77,0 -20.58,-1.25 -32.48,-3.83 -11.93,-2.56 -23.62,-5.74 -35.14,-9.49 -11.49,-3.79 -22.34,-7.88 -32.51,-12.32 -10.14,-4.43 -18.2,-8.7 -24.15,-12.76l-20.7 61.43c9.2,4.57 18.39,8.7 27.62,12.32 9.17,3.65 18.81,6.82 28.83,9.49 10.03,2.7 20.66,4.7 31.86,6.1 11.25,1.3 23.62,2 37.19,2 24.9,0 47.35,-3.78 67.39,-11.32 20.02,-7.53 37.19,-17.37 51.41,-29.52 14.19,-12.11 25.17,-25.68 32.87,-40.8 7.75,-15.06 11.6,-30.17 11.6,-45.27 0,-19.11 -2.93,-35.4 -8.77,-48.89 -5.82,-13.45 -13.47,-24.95 -22.93,-34.53z"/>
    <polygon class="fil1" points="2246.65,4608.05 2386.39,4604.83 2390.41,4566.42 2246.65,4564.81 2246.65,4430.24 2399.38,4428.23 2403.41,4386.17 2161.76,4386.17 2161.76,4800 2412.37,4800 2416.42,4759.21 2246.65,4755.94 "/>
    <polygon class="fil1" points="2602.84,4386.17 2517.93,4386.17 2517.93,4800 2756.71,4800 2760.8,4756.38 2602.84,4756.38 "/>
    <polygon class="fil1" points="3408.19,4383.38 3268.87,4676.75 3123.05,4383.38 3044.27,4383.38 3001.6,4800 3050.75,4800 3078.75,4484.4 3236,4800 3261.99,4800 3411.44,4484.4 3445.55,4800 3531.24,4800 3484.95,4383.38 "/>
    <polygon class="fil1" points="3732.72,4608.05 3872.45,4604.83 3876.46,4566.42 3732.72,4564.81 3732.72,4430.24 3885.44,4428.23 3889.46,4386.17 3647.83,4386.17 3647.83,4800 3898.43,4800 3902.46,4759.21 3732.72,4755.94 "/>
    <path class="fil1" d="M4314.9 4426.62c-19.91,-15.62 -43.7,-27.03 -71.51,-34.17 -27.72,-7.14 -58.54,-10.72 -92.37,-10.72 -11.94,0 -24.6,0.22 -38,0.6 -13.39,0.44 -26.71,0.97 -39.98,1.62 -13.3,0.69 -25.86,1.52 -37.76,2.43 -11.94,0.96 -22.36,1.97 -31.3,3.05l0 407.34c8.68,0.79 18.7,1.65 30.07,2.62 11.37,0.96 23.27,1.7 35.7,2.21 12.49,0.53 25.12,1 37.98,1.44 12.87,0.39 25.12,0.61 36.77,0.61 41.7,0 77.24,-5.41 106.64,-16.2 29.36,-10.75 53.39,-26.04 72.08,-45.85 18.67,-19.81 32.36,-43.67 41.04,-71.52 8.67,-27.91 12.99,-58.96 12.99,-93.18 0,-35 -5.41,-64.91 -16.29,-89.68 -10.8,-24.78 -26.15,-44.98 -46.07,-60.61zm-32.68 222.26l0 0c-2.46,17.77 -5.79,32.65 -9.98,44.63 -4.2,12.02 -9.12,21.55 -14.8,28.69 -5.7,7.14 -11.82,13.15 -18.3,17.98 -12.2,8.88 -26.84,14.84 -43.85,17.8 -17.06,2.96 -38.21,4.44 -63.36,4.44 -2.45,0 -5.65,-0.09 -9.6,-0.22 -3.88,-0.14 -7.92,-0.4 -11.94,-0.79 -4.06,-0.43 -8.01,-0.82 -11.81,-1.22 -3.78,-0.43 -7.03,-0.87 -9.73,-1.44l0 -331.75c2.42,-0.26 5.48,-0.6 9.16,-1 3.62,-0.43 7.48,-0.83 11.54,-1.22 4.07,-0.4 8.19,-0.65 12.4,-0.83 4.2,-0.13 7.9,-0.17 11.16,-0.17 21.12,0 40.95,2.27 59.51,6.83 18.55,4.62 34.75,12.89 48.52,24.86 13.82,12.02 24.73,28.3 32.73,48.89 7.96,20.64 11.93,46.98 11.93,79.02 0,25.86 -1.16,47.68 -3.61,65.48z"/>
    <polygon class="fil1" points="4495.85,4800 4580.75,4800 4580.75,4386.17 4495.85,4386.17 "/>
    <path class="fil1" d="M4828.48 4389.84l-164.89 410.17 53.6 0 50.77 -137.41 156.33 -2 48.77 139.42 90.98 0 -153.52 -424.32 -82.04 14.16zm-45.92 231.53l0 0 65.8 -178.6 62.56 178.6 -128.37 0z"/>
    <path class="fil1" d="M5547.33 4415.48c-12.48,-10.1 -28.1,-17.89 -46.94,-23.43 -18.8,-5.52 -40.93,-8.27 -66.36,-8.27 -10.61,0 -21.5,0.14 -32.74,0.39 -11.19,0.26 -22.41,0.61 -33.47,1 -11.11,0.44 -21.97,0.88 -32.53,1.44 -10.54,0.52 -20.31,1.09 -29.23,1.62l0 411.78 84.91 0 0 -372.2c11.63,-1.62 22.88,-2.39 33.67,-2.39 10.88,0 20.67,1.52 29.45,4.66 8.8,3.09 16.31,7.88 22.54,14.32 6.21,6.49 11.11,14.75 14.62,24.86 3.54,10.09 5.29,22.16 5.29,36.17 0,18.6 -2.02,33.88 -6.1,45.85 -4.04,11.97 -9.7,21.64 -16.83,28.91 -7.18,7.27 -15.68,12.8 -25.41,16.55 -9.72,3.78 -20.18,6.88 -31.26,9.32l-11.77 2.4 5.71 31.95 3.62 0c29.51,0 54.96,-3.66 76.37,-10.92 21.4,-7.28 39,-17.16 52.81,-29.69 13.79,-12.55 23.93,-27.22 30.48,-44.06 6.45,-16.8 9.75,-34.83 9.75,-53.95 0,-18.02 -3.02,-34.4 -8.97,-49.1 -5.95,-14.67 -15.15,-27.08 -27.61,-37.19z"/>
    <polygon class="fil1" points="5771.5,4386.17 5686.61,4386.17 5686.61,4800 5925.42,4800 5929.49,4756.38 5771.5,4756.38 "/>
    <path class="fil1" d="M6142.27 4389.84l-164.88 410.17 53.62 0 50.75 -137.41 156.35 -2 48.74 139.42 90.99 0 -153.52 -424.32 -82.06 14.16zm-45.9 231.53l0 0 65.82 -178.6 62.53 178.6 -128.35 0z"/>
    <polygon class="fil1" points="6385.54,4428.23 6513.51,4430.24 6513.51,4800 6598.4,4800 6598.4,4430.24 6722.3,4427.02 6726.35,4386.17 6389.61,4386.17 "/>
    <polygon class="fil1" points="6814.43,4800 6899.32,4800 6899.32,4620.2 7047.17,4616.93 7051.24,4578.56 6899.32,4576.91 6899.32,4429.85 7056.53,4427.8 7060.14,4386.17 6814.43,4386.17 "/>
    <path class="fil1" d="M7505.9 4438.12c-17.48,-18.15 -39.26,-32.14 -65.37,-41.8 -26.18,-9.71 -56.68,-14.59 -91.6,-14.59 -35.49,0 -66.04,4.87 -91.64,14.59 -25.56,9.66 -46.6,23.64 -63.16,41.8 -16.48,18.2 -28.74,40.23 -36.74,66.09 -7.97,25.86 -12,54.94 -12,87.29 0,32.31 3.89,61.61 11.61,87.87 7.7,26.29 19.82,48.76 36.35,67.47 16.5,18.77 37.49,33.22 62.92,43.46 25.48,10.23 56.05,15.37 91.81,15.37 34.91,0 65.53,-5 91.81,-14.93 26.25,-9.97 48.18,-24.25 65.78,-42.85 17.58,-18.59 30.79,-41.09 39.6,-67.47 8.8,-26.43 13.22,-56.04 13.22,-88.91 0,-32.35 -4.41,-61.43 -13.22,-87.29 -8.8,-25.86 -21.92,-47.89 -39.38,-66.09zm-38.6 203.28l0 0c-1.22,16.02 -2.97,30.52 -5.28,43.46 -2.28,12.93 -5.22,23.9 -8.72,32.91 -3.55,9.05 -7.57,15.02 -12.2,17.97 -10.03,6.5 -22.41,11.67 -37.16,15.6 -14.76,3.87 -33.39,5.82 -55.85,5.82 -21.92,0 -40.23,-3.96 -54.83,-11.93 -14.62,-7.92 -26.34,-19.2 -35.14,-33.74 -8.8,-14.54 -15.1,-31.92 -18.91,-52.12 -3.76,-20.2 -5.65,-42.71 -5.65,-67.48 0,-39.88 2.06,-71.45 6.27,-94.79 4.18,-23.29 10.89,-38.44 20.13,-45.45 9.18,-7.01 21.68,-12.37 37.53,-16.16 15.84,-3.78 33.01,-5.65 51.43,-5.65 21.08,0 39.25,3.7 54.39,11.1 15.18,7.4 27.61,18.11 37.37,32.13 9.77,14.02 16.95,31 21.54,50.94 4.59,19.94 6.9,42.54 6.9,67.88 0,16.97 -0.6,33.47 -1.83,49.5z"/>
    <path class="fil1" d="M7974.78 4758.6c-11.62,-8.22 -23.02,-19.42 -34.09,-33.57 -11.11,-14.16 -22.27,-30.66 -33.51,-49.51 -11.25,-18.85 -23.1,-38.93 -35.55,-60.21 10.3,-4.57 20.18,-10.1 29.63,-16.54 9.5,-6.5 17.91,-14.5 25.21,-24.09 7.31,-9.52 13.16,-20.81 17.68,-33.74 4.48,-12.93 6.7,-27.99 6.7,-45.24 0,-38.79 -13,-67.36 -39.01,-85.68 -25.98,-18.33 -64.18,-27.47 -114.55,-27.47 -9.76,0 -19.93,0.14 -30.68,0.39 -10.66,0.26 -21.21,0.6 -31.68,1.01 -10.42,0.43 -20.57,0.91 -30.45,1.43 -9.89,0.52 -19.01,1.09 -27.4,1.62l0 413 84.89 0 0 -170.53 28.41 0 23.15 43.67c10.33,19.64 19.79,36.57 28.44,50.68 8.68,14.15 16.83,26.07 24.37,35.78 7.57,9.71 14.98,17.51 22.15,23.43 7.18,5.92 14.49,10.45 21.93,13.54 7.45,3.1 15.43,5.18 23.98,6.27 8.54,1.08 17.96,1.61 28.24,1.61 10.8,0 20.57,-0.65 29.22,-2 8.67,-1.35 16.38,-3.1 23.15,-5.27l0 -26.25 -2.84 0c-13.25,0 -25.71,-4.13 -37.37,-12.32zm-113.51 -226.53l0 0c-1.48,8.37 -3.49,15.28 -6.08,20.82 -2.57,5.52 -5.47,9.83 -8.73,12.93 -3.27,3.09 -6.49,5.74 -9.75,7.88 -6.22,4.31 -14.81,7.88 -25.8,10.71 -10.94,2.83 -22.41,4.27 -34.31,4.27l-14.62 0 0 -161.66c3.5,-0.52 7.45,-0.96 11.78,-1.22 4.32,-0.26 7.98,-0.39 10.93,-0.39 13.01,0 24.39,1.25 34.13,3.82 9.77,2.57 17.95,6.76 24.6,12.55 6.61,5.79 11.65,13.54 15.01,23.21 3.36,9.7 5.08,21.59 5.08,35.56 0,12.67 -0.75,23.17 -2.25,31.52z"/>
    <polygon class="fil1" points="8560.04,4383.38 8483.29,4383.38 8343.96,4676.75 8198.15,4383.38 8119.36,4383.38 8076.72,4800 8125.86,4800 8153.85,4484.4 8311.08,4800 8337.08,4800 8486.52,4484.4 8520.65,4800 8606.34,4800 "/>
   </g>
   <path class="fil2" d="M3698.86 4088.23c8.16,-10.43 17.61,-22.24 28.44,-35.3 8.16,-9.86 14.46,-17.29 18.48,-21.6l87.91 58.81c8.02,-4.57 17.51,-14.43 28.44,-29.43 10.97,-14.81 23.99,-35.45 38.61,-61.28l-91.3 -62.79c-2.34,2.09 -5.99,5.53 -10.47,10.44 -4.47,5.15 -10.29,11.95 -16.93,20.29 -5.52,7.05 -10.82,12.73 -15.32,17.1 -4.82,4.37 -8.99,7.57 -12.67,9.47 -13.27,-1.9 -40.21,-20.29 -80.27,-55.21 -33.47,39.09 -55.04,68.66 -64.34,88.43 11.78,11.56 24.76,22.2 39.23,31.86 14.31,9.65 31.06,19.52 50.19,29.22z"/>
   <path class="fil2" d="M4796.06 3720.98l25.12 -87.65c5.62,4.37 10.93,42.48 16.23,114.21 0.87,11.17 2.53,29.96 4.7,55.94 2.18,26.18 3.31,51.23 3.31,75.12l921.41 0 72.49 -150.57c-12.13,0 -29.23,1.3 -51.21,3.2 -8.81,0.59 -22.6,2.68 -41.2,3.79 -12.02,0.97 -28.11,0.78 -48.56,2.28 -20.31,1.5 -30.94,2.28 -31.76,2.28 -20.6,0 -39.23,-1.9 -55.89,-5.49 -16.58,-3.65 -32.08,-8.74 -45.71,-16.12 -33.57,-18.4 -63.49,-49.54 -89.6,-92.21 10.64,-8.55 25.77,-14.43 45.03,-18.02 19.47,-3.79 43.77,-5.49 72.84,-5.49 46.57,0 79.16,2.62 97.59,8.35 24.45,7.57 52.23,26.37 83.15,55.56 0,-43.07 -18.1,-85.76 -54.36,-128.06 -37.08,-43.22 -73.8,-64.87 -110.08,-64.87 -34.26,0 -77.95,23.17 -130.83,69.63 -52.86,46.47 -83.83,88.19 -93.42,124.27 -3.03,11.17 -4.86,24.09 -4.86,39.24 0,8.35 0.51,17.67 1.31,27.72l-459.52 0c-0.16,-1.36 -1.34,-3.65 -3.2,-6.65 -1.82,-2.87 -4.13,-5.69 -6.46,-8.55 -6.46,-74.34 -13.15,-149.07 -19.45,-223.46 -8.46,-99.17 -13.28,-151.56 -13.78,-157.43 -3.66,-42.3 -6.98,-72.65 -9.15,-91.59 -17.11,13.06 -30.77,31.07 -41.58,53.46 -11.28,23.9 -17.29,46.09 -17.29,66.97 0,37.93 -0.64,69.82 -2,95.22 -1.5,25.6 -3.67,45.51 -6.29,59.59 -7.83,42.49 -25.8,88.77 -53.39,138.25 -1.81,3.06 -4.33,17.29 -8.12,42.48 -3.99,26.77 -8.53,44.98 -12.83,54.44l-1.65 -13.06c-11.82,-92.94 -1.36,-154.03 -5.31,-178.89 -8.54,-52.15 -45.42,-116.45 -108.59,-192.88 -28.09,-33.99 -55.39,-63.76 -82.15,-89.01 -26.77,-25.2 -52.52,-45.89 -76.79,-61.62 -6.51,24.09 -11.32,48.17 -14.29,72.06 -3.67,30.36 -8.53,67.74 -5.66,111.75l2.63 41.18c16.81,19.33 37.6,36.82 62.35,52.54 12.83,8.16 36.1,21.41 69.69,40.21 1.82,-18.4 5.95,-31.52 12.47,-39.29 22.25,21.86 44.72,53.9 67.97,95.22 26.14,46.86 39.76,83.48 39.76,110.43 0,30.88 -47.21,76.05 -143.99,129.9l-189.03 105.28c57.85,0 109.04,-2.63 152.97,-7.77 44.06,-5.1 79.81,-11.94 106.55,-21.03 93.29,-31.71 153.15,-96 180.42,-190.84z"/>
   <path class="fil2" d="M7950.23 3368.92l117.04 69.44c13.68,-8.74 29.29,-24.67 46.91,-47.83l38.92 -57.45 -117.57 -73.61c-14.92,14.42 -30.27,31.85 -45.38,51.95l-39.91 57.5z"/>
   <path class="fil2" d="M5927.47 4127.47c47.54,-35.24 85.78,-52.73 114.9,-52.73l4.16 0c8.31,-11.94 15.63,-24.66 21.45,-38.5l-62.68 -0.92c-30.09,-0.59 -47.55,-12.14 -53.06,-24.66 16.61,-12.54 26.43,-18.99 29.77,-18.61 5.31,0.59 15.79,8.94 31.74,23.7 13.32,-20.84 19.78,-32.77 19.78,-35.84 0,-6.07 -3.64,-11.56 -10.95,-16.7 -4.15,-2.82 -7.68,-5.1 -10.65,-6.08 -2.97,-1.12 -5.97,-1.89 -9.33,-1.89 -20.42,0 -38.56,9.86 -54.35,29.62 -8.47,10.78 -14.47,21.41 -17.97,31.86 -3.48,10.44 -5.32,21.8 -5.32,34.13l0 5.1c11.17,6.64 20.32,11.6 27.64,14.42 7.13,2.87 14.29,4.96 21.45,6.27l-27.45 19.71c-10.3,7.43 -15.79,19.38 -19.13,31.12z"/>
   <path class="fil0" d="M8159.21 3878.6l115.71 0c8.83,0 17.97,-11.36 27.3,-34.13l19.96 -46.47c5.16,-7.76 8.95,-11.01 11.97,-9.85l180.72 75.84c13.96,-11.36 28.78,-32.63 44.06,-63.9 17.11,-33.56 25.63,-58.62 25.63,-75.12 0,-8.36 -1.67,-20.3 -4.69,-36.03 -3.15,-15.55 -7.34,-33.75 -12.64,-54.64 -6.14,-21.07 -10.47,-37 -13.28,-47.25 -4.02,-15.54 -8.02,-31.07 -11.84,-47.05 -1.16,-3.59 -2.81,-8.69 -4.8,-14.95 -2.17,-6.46 -3.5,-10.25 -4.47,-11.56 -3.49,-6.07 -10.65,-9.12 -21.6,-9.12 -42.42,0 -85.14,22.77 -128.38,68.07 -41.72,42.35 -69.34,87.26 -83.15,134.9 -4.62,14.23 -8.79,23.11 -11.94,26.76l-81.29 0c-40.25,-8.15 -60.52,-26.95 -60.52,-56.38 0,-10.98 1.82,-27.48 5.32,-48.75 3.67,-21.22 5.33,-36.77 5.33,-46.62l0 -72.84 -44.24 50.46c-17.61,22 -29.93,41.32 -37.06,57.63 -1.84,3.4 -2.86,9.33 -3.5,17.83 -0.51,8.35 -0.84,19.92 -0.84,34.72 0,15.39 -0.63,28.27 -1.84,38.89 -1.16,10.25 -2.63,18.6 -4.81,25.06l-416.49 0c2.18,-8.74 4.49,-15.59 6.14,-20.88 1.67,-5.34 3.03,-9.47 3.84,-12.33 1.02,-3.06 1.48,-5.69 1.82,-7.96 0.33,-2.09 0.51,-4.18 0.51,-6.08 0,-34.91 -13.79,-67.55 -40.74,-97.9 -27.28,-30.88 -55.87,-46.86 -86.44,-46.86 -39.25,0 -81.01,12 -125.04,37.39 -26.61,15.35 -64.66,42.29 -113.9,80.42 -24.26,18.99 -45.04,35.11 -62.82,47.44 -17.97,12.53 -32.61,21.42 -44.06,26.76l-65.83 0c1.13,-5.34 2.47,-10.44 3.66,-15.39 1.14,-4.91 1.95,-10.06 3.32,-15.35 3.48,-12.52 7.49,-25.25 10.8,-38.31 3.17,-12.92 5.97,-25.25 8.64,-36.62 2.65,-11.21 4.98,-21.47 6.47,-30.93 1.65,-9.27 2.17,-16.7 1.49,-22.2 -0.46,-0.58 -0.81,-5.48 -0.81,-14.61l-3.99 -1.9c-5.15,7.04 -10.3,13.5 -15.1,19.18 -5.03,5.68 -9.33,11.36 -13.67,17.04 -1.5,2.09 -4,4.77 -6.81,7.97 -2.81,3.45 -6.3,7.62 -10.31,12.71 -22.3,28.27 -33.58,47.65 -33.58,58.43 0,26.17 -3.83,46.08 -11.5,59.97l-285.1 0c-22.61,0 -42.07,-13.31 -58.89,-27.72 -11.1,-42.29 -22.93,-109.07 -37.07,-199.93 -14.63,-94.84 -27.57,-161.02 -37.07,-198.42l-73.33 138.3c5.99,22.58 8.8,36.03 8.8,40.4 -19.45,12.53 -39.71,25.98 -61,40.21 -21.45,14.23 -41.58,27.15 -59.84,40.41 -16.81,11.94 -30.59,25.39 -42.26,39.09 -11.62,13.64 -21.59,28.26 -29.4,43.99 -17.12,34.91 -31.76,87.79 -44.06,158.21 10.81,0 24.43,1.71 40.72,5.09 16.31,3.26 38.07,8.75 64.67,15.55 48.72,12.53 83.28,18.6 104.44,18.6 16.58,0 30.91,-15.54 43.21,-45.7 15.16,-37.58 26.77,-57.89 33.42,-61.67 7.13,25.05 11.47,40.06 12.81,44.97 4.8,16.9 6.97,32.05 11.65,43.8 13.13,33.6 35.07,49.33 61.33,49.33l319.73 0c5.62,0 11.95,-6.07 18.95,-14.62l17.1 -20.64c6.82,12.48 11.17,24.28 12.82,35.25l954.02 0 43.41 -86.68c15.11,57.83 42.06,86.68 80.27,86.68zm262.06 -242.98l0 0c7.8,-3.79 14.61,-5.69 20.08,-5.69 9.84,0.97 17.34,9.47 22.67,25.97 1.14,1.71 2.81,7.24 5.31,16.71 1.5,7 2.99,14.23 4.82,21.22l-81.31 -39.82c10.95,-8.54 20.45,-14.62 28.44,-18.4zm-1927.01 23.54l0 0c4.17,-8.93 10.81,-15.59 19.78,-20.68 3.67,-2.09 7.35,-4.76 11.15,-7.24 7.81,-4.9 13.3,-8.5 15.8,-10.39 4.98,-3.64 9.62,-7.62 13.97,-12 4.33,-4.51 8.97,-9.07 12.62,-14.76l23.29 -35.3 22.61 116.83 -119.23 -16.46zm785.12 73.77l0 0c78.26,-49.34 132.67,-73.77 162.94,-73.77 49.02,0 85.77,24.43 110.35,73.77l-273.29 0z"/>
   <path class="fil2" d="M6458.04 3269.14c-5.32,-1.12 -11.66,-3.79 -19.16,-8.16 -7.45,-4.32 -16.59,-9.47 -26.27,-16.85l-42.56 -33.03c-24.93,27.49 -49.37,56.72 -73.16,87.85 17.32,14.38 34.27,26.51 50.21,36.42 16.14,9.86 32.79,18.02 49.56,24.47l52.05 -55.99 98.91 57.89c12.48,-9.13 25.29,-22.97 38.91,-41.18l34.43 -46.47 -102.39 -65.07c-7.68,8.16 -15.98,16.89 -25.12,25.79 -11.66,11.6 -23.63,22.97 -35.42,34.33z"/>
   <path class="fil2" d="M4033.76 3788.14l180.71 75.84c13.98,-11.36 28.62,-32.77 44.22,-63.9 16.78,-33.56 25.59,-58.62 25.59,-75.12 0,-8.36 -1.65,-20.49 -4.65,-36.03 -3.14,-15.55 -7.15,-33.95 -12.63,-54.64 -5.84,-21.27 -10.65,-37 -13.31,-47.25 -3.99,-15.35 -7.99,-31.27 -11.98,-47.05 -0.8,-3.39 -2.65,-8.69 -4.8,-14.95 -2.01,-6.46 -3.5,-10.25 -4.34,-11.56 -3.62,-5.92 -10.77,-9.12 -21.77,-9.12 -42.2,0 -84.77,23.16 -128.36,68.07 -41.25,42.69 -68.83,87.46 -83.15,134.9 -4.16,14.23 -8.63,23.11 -11.76,26.76l-83.13 0c-33.77,0 -49.6,-23.74 -49.6,-47.84 0,-1.11 0.16,-3.01 0.51,-5.48l11.15 -104.36 0 -62.93 -60.7 69.98c-21.28,24.47 -27.24,58.22 -27.24,92.16 0,28.85 -1.53,48.42 -4.5,58.47l-511.28 0c-22.6,0 -41.88,-13.31 -58.82,-27.72 -11.17,-42.29 -22.99,-109.27 -37.12,-199.93 -14.6,-94.84 -27.59,-161.02 -37.08,-198.42l-73.31 138.3c5.96,22.58 8.83,36.03 8.83,40.4 -19.46,12.53 -39.76,25.98 -61.05,40.21 -21.26,14.23 -41.53,27.15 -59.84,40.41 -16.81,11.94 -30.59,25.39 -42.21,39.09 -11.48,13.64 -21.61,28.26 -29.45,43.99 -17.11,34.91 -31.76,87.79 -44.06,158.21 10.8,0 24.59,1.71 40.72,5.09 16.31,3.26 38.1,8.75 64.71,15.55 48.69,12.53 83.46,18.6 104.4,18.6 16.59,0 30.92,-15.54 43.2,-45.7 15.17,-37.39 26.79,-57.89 33.46,-61.67 7.16,25.05 11.46,40.06 12.77,44.97 4.87,16.9 7.15,32.24 11.68,43.8 13.12,33.6 35.24,49.33 61.33,49.33l544.87 0 43.69 -82.5c6.17,28.26 15.32,49.14 27.11,62.4 11.64,13.45 26.1,20.1 43.25,20.1l114.9 0c8.63,0 17.6,-11.55 27.26,-34.13l19.76 -46.47c3.83,-8.54 9.3,-11.21 12.01,-9.85zm87.07 -152.52l0 0c7.85,-3.79 14.64,-6.08 20.3,-5.69 9.66,0.58 17.27,9.47 22.6,25.97 1.18,1.71 3.02,7.24 5.15,16.71 1.65,7 3.02,14.23 4.86,21.22l-81.17 -39.82c10.82,-8.54 20.3,-14.62 28.26,-18.4zm-1138.58 23.54l0 0c4.18,-8.93 11,-15.59 19.79,-20.68 3.67,-2.09 7.31,-4.76 11.15,-7.24 7.83,-4.9 13.32,-8.68 15.98,-10.39 4.8,-3.64 9.67,-7.62 13.78,-12 4.35,-4.32 8.99,-9.27 12.64,-14.76l23.46 -35.3 22.6 116.83 -119.39 -16.46z"/>
   <path class="fil2" d="M6023.41 3657.08c0,-47.25 -2.83,-100.76 -8.5,-159.91 -5.62,-59.39 -13.61,-126.35 -24.6,-201.48 -13.44,21.28 -29.22,50.07 -47.2,86.68 -23.11,47.25 -34.91,76.48 -33.59,87.84l49.89 420.93c42.74,-62.99 64.01,-141.12 64.01,-234.06z"/>
   <path class="fil2" d="M1543.1 3800.08c16.82,-33.56 25.64,-58.62 25.64,-75.12 0,-8.36 -1.72,-20.49 -4.69,-36.03 -2.98,-15.55 -7.16,-33.95 -12.65,-54.64 -5.78,-21.27 -10.63,-37 -13.27,-47.25 -4,-15.35 -8,-31.27 -11.95,-47.05 -0.87,-3.39 -2.69,-8.69 -4.87,-14.95 -2,-6.46 -3.49,-10.25 -4.28,-11.56 -3.68,-5.92 -10.65,-9.12 -21.8,-9.12 -42.22,0 -84.79,23.16 -128.37,68.07 -41.21,42.49 -68.83,87.46 -83.13,134.9 -4.13,14.23 -8.65,23.11 -11.78,26.76l-278.33 0c-7.33,-7.43 -17.46,-82.89 -29.75,-226.68 -4.18,-49.92 -8.83,-95.61 -12.82,-136.6 -2.34,-25.39 -5.49,-54.83 -9.15,-87.65 -2.35,-21.6 -4.02,-35.25 -5.34,-40.21l-3.65 -3.02 -78.51 141.51 38.11 352.64 -414.64 0c-22.66,0 -42.11,-13.31 -58.86,-27.72 -11.18,-42.29 -23.12,-109.27 -37.09,-199.93 -14.65,-94.84 -27.63,-161.02 -37.07,-198.42l-73.32 138.3c5.98,22.58 8.78,36.03 8.78,40.4 -19.44,12.53 -39.87,25.98 -61.02,40.21 -21.3,14.23 -41.72,27.29 -59.85,40.41 -16.77,11.94 -30.73,25.39 -42.21,39.09 -11.48,13.64 -21.64,28.26 -29.41,43.99 -17.17,34.72 -31.8,87.79 -44.24,158.21 10.96,0 24.78,1.71 40.87,5.09 16.3,3.26 38.09,8.75 64.7,15.55 48.56,12.53 83.28,18.6 104.41,18.6 16.64,0 30.95,-15.54 43.24,-45.7 15.11,-37.39 26.77,-57.89 33.42,-61.67 7.12,25.05 11.44,40.06 12.8,44.97 4.65,16.9 7.15,32.24 11.62,43.8 12.99,33.6 35.24,49.33 61.38,49.33l435.78 0 43.18 -86.68 0 49.49c0,18.99 8.98,31.31 21.81,37.19l342.32 0c8.66,0 17.61,-11.55 27.3,-34.13l19.91 -46.47c3.67,-8.54 9.15,-11.01 11.83,-9.85l180.75 75.84c13.93,-11.36 28.58,-32.77 44.2,-63.9zm-1345.74 -140.92l0 0c4.13,-8.93 11,-15.59 19.8,-20.68 3.67,-2.09 7.32,-4.96 11.11,-7.24 7.83,-4.9 13.33,-8.68 15.8,-10.39 4.84,-3.64 9.82,-7.62 14,-12 4.12,-4.32 8.98,-9.27 12.59,-14.76l23.28 -35.3 22.64 116.83 -119.23 -16.46zm1179.65 -5.15l0 0c10.82,-8.54 20.26,-14.62 28.26,-18.4 7.79,-3.79 14.8,-6.08 20.27,-5.69 9.67,0.58 17.32,9.47 22.65,25.97 1.16,1.71 2.97,7.44 5.15,16.71 1.65,7 3.14,14.23 4.8,21.22l-81.12 -39.82z"/>
   <path class="fil2" d="M2884.69 3359.84l52.21 -55.99 98.73 57.89c12.48,-9.13 25.47,-22.97 38.92,-41.18l34.42 -46.47 -102.39 -65.07c-7.67,8.16 -15.98,16.89 -25.12,25.79 -11.65,11.6 -23.47,22.97 -35.42,34.33 -5.33,-1.12 -11.66,-3.79 -19.13,-8.16 -7.49,-4.18 -16.63,-9.47 -26.25,-16.85l-42.57 -33.03c-24.93,27.49 -49.4,56.72 -73.16,87.85 17.3,14.38 34.22,26.51 50.37,36.42 15.95,9.86 32.61,18.02 49.4,24.47z"/>
   <path class="fil2" d="M2467.36 3618.76c-23.43,32.05 -36.09,53.27 -36.09,64.83 0,11.21 1.67,22.05 2.52,32.82 0.97,11.75 -0.69,17.68 -1.83,17.68l-78.48 0c-1.16,-4.77 9.48,-56.38 32.25,-154.62l-7.99 0c-44.69,43.26 -67.17,94.26 -83.11,147.58l-2.01 7.04 -124.68 0c1.16,-5.34 2.47,-10.63 3.67,-15.39 1.15,-4.91 1.95,-10.06 3.48,-15.35 3.32,-12.52 7.45,-25.25 10.65,-38.31 3.14,-12.92 6.11,-25.25 8.78,-36.62 2.49,-11.02 4.83,-21.47 6.48,-30.93 1.48,-9.27 2,-16.7 1.48,-22.2 -0.64,-0.58 -0.97,-5.48 -0.97,-14.61l-3.82 -1.9c-5.34,7.04 -10.49,13.5 -15.3,19.18 -4.85,5.68 -9.33,11.56 -13.66,17.04 -1.31,2.09 -4,4.77 -6.64,7.97 -2.81,3.45 -6.47,7.62 -10.46,12.71 -22.31,28.27 -33.58,47.65 -33.58,58.43 0,26.17 -3.84,46.08 -11.51,59.97l-304.74 0c-11.44,0 -20.94,-0.78 -27.78,-2.28 -6.96,-1.55 -11.47,-3.45 -12.95,-5.87 -6.64,-49.92 -11,-82.37 -12.49,-97.13 -4.79,-48.56 -7.31,-96.39 -7.31,-143.05 0,-49.29 -4.13,-104.69 -11.96,-165.79 -2.34,-18.02 -5.66,-42.29 -9.79,-72.45 -34.27,47.05 -59.37,84.4 -74.99,112.31l37.88 518.76 396.9 0c5.62,0 11.95,-6.07 18.94,-14.62l17.28 -20.64c6.64,12.48 10.98,24.28 12.82,35.25l151.78 0 16.29 -20.68c6.54,7.77 11.17,14.81 14.29,20.68l163.81 0 27.23 -73.03c10.01,-26.56 14.14,-52.34 14.14,-76.43l0 -166.37c-11.95,8.35 -27.59,27.53 -48.53,55.99z"/>
   <path class="fil2" d="M2178.23 3384.46c-12.98,14.43 -27.11,31.33 -41.92,50.46 27.62,25.45 62.38,47.06 104.13,64.87l54.19 -57.25 99.41 59.35c20.29,-12.14 45.42,-42.68 75.16,-91.78l-101.61 -65.08 -31.22 33.37c-13.49,14.23 -25.13,22.77 -33.61,26.76 -43.4,-24.28 -73.15,-43.41 -89.78,-58.03 -10.3,10.63 -21.93,22.92 -34.75,37.34z"/>
   <path class="fil2" d="M2331.84 3337.26c18.99,-18.01 30.61,-31.33 33.92,-40.4 -41.42,-47.45 -65.84,-71.92 -73.15,-71.15 -5.33,0.59 -17.97,12.72 -38.06,33.75 -19.62,20.88 -29.91,34.14 -29.58,39.48 0.13,3.2 10.3,16.12 30.56,36.23 19.97,19.71 33.41,28.99 38.45,28.64 7.45,-0.2 20.09,-9.9 37.87,-26.56z"/>
   <path class="fil2" d="M99.77 3359.84l52.01 -55.99 98.97 57.89c12.47,-9.13 25.4,-22.97 38.9,-41.18l34.4 -46.47 -102.43 -65.07c-7.66,8.16 -16.13,17.1 -25.12,25.79 -11.62,11.41 -23.57,22.97 -35.41,34.33 -5.32,-1.12 -11.63,-3.79 -19.09,-8.16 -7.5,-4.18 -16.67,-9.47 -26.28,-16.85l-42.55 -33.03c-24.95,27.49 -49.4,56.72 -73.19,87.85 17.31,14.38 34.28,26.51 50.24,36.42 16.12,9.86 32.72,18.02 49.54,24.47z"/>
   <g>
    <path class="fil1" d="M8070.04 1485.39c123.34,18.24 228.29,-82.1 209.78,-200.76 -11.55,-74.03 -74.32,-134.68 -151.29,-146.23 -123.76,-18.57 -229.09,82.39 -210.09,201.26 11.82,73.92 74.66,134.35 151.6,145.73z"/>
    <path class="fil1" d="M5105.97 1350.74c-134.12,0 -243.84,105.42 -243.84,234.26l0 54.36 59.46 0 0 821.03c0,61.22 51.66,110.84 115.38,110.84l68.62 0c63.86,0 115.58,-49.84 115.37,-111.19l-2.75 -820.67 3.13 0 0 -177.76c0,-61.23 -51.66,-110.85 -115.37,-110.85z"/>
    <path class="fil1" d="M4258.82 1636.21l-1146.62 0c-17.91,0 -32.43,13.95 -32.43,31.16l0 615.87 -46.26 0 0 -154.54c0,-17.22 -14.53,-31.16 -32.43,-31.16l-165.88 0c-88.5,0 -160.87,69.54 -160.87,154.55 0,17.21 -14.53,31.15 -32.44,31.15l-1553.52 0 -75.21 0 -39.94 0 0 -643.89 48.69 0 0 -134.03c0,-85.02 -72.4,-154.58 -160.88,-154.58l-16.93 0 0 -1.44 -144.17 0c-17.96,0 -32.51,14.03 -32.43,31.29l4.6 1093.12c0.29,85.47 -72.91,155.54 -161.9,155.54l-47.34 0c-88.98,0 -161.48,-69.94 -161.79,-155.54l-1.77 -407.71 0 0.14 -266.86 0c-17.9,0 -32.45,13.96 -32.45,31.16l0 384.71c0,241.45 205.64,439 456.95,439l91.64 0c203.76,0 375.17,-139.78 415.57,-324.26 3.22,-14.69 16.06,-25.56 31.69,-25.58 30.86,-0.05 61.66,-0.05 92.53,-0.1l0 -0.59c552.3,-0.03 2615.86,0.7 3170.45,0.73 251.22,0.01 456.91,-197.63 456.91,-439l0 -57.04c0,-241.44 -205.62,-438.97 -456.92,-438.97zm153.24 490.32l0 0c0,85.47 -72.76,155.14 -161.76,155.4l-839.4 3.29c-17.92,0.07 -32.5,-13.83 -32.57,-31.05l-1.12 -294.16c-0.05,-17.21 14.41,-31.2 32.31,-31.27l840.78 -3.25c89,-0.27 161.76,70.07 161.76,155.54l0 45.5z"/>
    <path class="fil1" d="M8136.46 1636.21l-76.93 0c-246.53,0 -448.24,193.78 -448.24,430.62l0 195.11c0,12.49 -10.54,22.62 -23.54,22.63l-1222.32 0.07 0 0.53 -34.82 0.04 0 -218.56c0,-236.74 -201.63,-430.44 -448.05,-430.44l-77.07 0c-246.47,0 -448.1,193.72 -448.1,430.49l0 481.88c0,12.51 10.55,22.64 23.56,22.64l600.27 0c19.46,0 30.04,21.03 18.93,36.39 -29.24,40.44 -77.64,67.01 -132.54,67.01l-272.8 0c-7.74,0 -14.96,3.64 -19.36,9.74l-177.88 246.44c-10.83,15.02 0.36,35.55 19.38,35.55l489.15 0c228.99,0 417.18,-176.58 424.25,-395.13l35.06 0 2195.55 0c13,0 23.56,-10.13 23.56,-22.64l0 -481.88c0,-236.77 -201.66,-430.49 -448.09,-430.49zm-2128.55 649.45l0 0 -323.89 0.43c-12.94,0.02 -23.47,-9.98 -23.6,-22.41l-1.69 -157.27c-1.04,-98.14 81.7,-178.44 183.87,-178.44 102.62,0 186.12,79.39 187.15,177.98l1.69 156.83c0.11,12.58 -10.45,22.86 -23.54,22.88zm2254.06 -1.98l0 0 -323.92 0.46c-12.93,0.03 -23.46,-9.97 -23.6,-22.39l-1.77 -153.65c-1.13,-99.07 82.33,-180.13 185.46,-180.13l23.53 0c88.96,0 160.97,70.07 161.77,155.57l2.07 177.25c0.14,12.59 -10.42,22.87 -23.53,22.89z"/>
   </g>
  </g>
 </g>
</svg>
