{
  "HorizonLayout": [
    {
      "layout": "logo",
      "showLogo": true,
      "showMenu": true,
      "showSearch": false
    },
    {
      "layout" : "header_text",
      "padding": 20.0,
      "fontSize": 30.0,
      "isSafeArea": false,
      "title" : "Explore daily recipe within a tap"
    },

    {
      "layout": "bannerImage",
      "isSlider": true,
      "design": "default",
      "showBackGround": true,
      "radius": 2.0,

      "items": [
        {
          "category": 40,
          "image": "https://images.unsplash.com/photo-1448131063153-f1e240f98a72?ixlib=rb-1.2.1&ixid=eyJhcHBfaWQiOjEyMDd9&auto=format&fit=crop&w=500&q=60",
          "padding": 15.0

        },
        {
          "category": 41,
          "image": "https://images.unsplash.com/photo-1496318447583-f524534e9ce1?ixlib=rb-1.2.1&ixid=eyJhcHBfaWQiOjEyMDd9&auto=format&fit=crop&w=500&q=60",
          "padding": 15.0
        },
        {
          "category": 31,
          "image": "https://images.unsplash.com/photo-1558920558-fb0345e52561?ixlib=rb-1.2.1&ixid=eyJhcHBfaWQiOjEyMDd9&auto=format&fit=crop&w=500&q=60",
          "padding": 15.0
        }
      ]
    },

    {
      "layout" : "largeCardHorizontalListItems",
      "imageBorder": 20,
      "category": 41,
      "name": "Popular dishes"
    },
    {
      "layout" : "sliderList",
      "type" :"",
      "name": "Greatest Videos",
      "category": 34
    },
    {
      "layout" : "sliderList",
      "type" :"imageOnTheRight",
      "name": "Recent Recipe",
      "category": 31,
      "imageBorder": 20
    },
    {
      "layout" : "sliderItem",

      "name": "Recent Recipe",
      "category": 40
    },
    {
      "name": "Food For Kids",
      "image": "",
      "layout": "card",
      "category": 31
    },
    {
      "name": "Healthy Foods",
      "image": "",
      "layout": "twoColumn",
      "category": 31
    },
    {
      "name": "Sweetie Sweet Sweet",
      "image": "",
      "layout": "fourColumn",
      "category": 31
    },
    {
      "name": "Community Sharing",
      "image": "",
      "layout": "staggered",
      "category": 31
    }


  ],
  "Setting": {
    "MainColor": "#3FC1BE",
    "ProductListLayout": "list"
  },
  "TabBar": [
    {
      "layout": "home",
      "icon": "assets/icons/tabs/icon-home.png"
    },
    {
      "layout": "category",
      "categoryLayout": "card",
      "icon": "assets/icons/tabs/icon-category.png"
    },
    {
      "layout": "search",
      "icon": "assets/icons/tabs/icon-search.png"
    },
    {
      "layout": "wishlist",
      "icon": "assets/icons/tabs/icon-heartthin.png"
    },
    {
      "layout": "profile",
      "icon": "assets/icons/tabs/icon-user.png"
    }
  ],
  "VerticalLayout":{
    "name":"Explore more",
    "layout":"list"
  },
  "SplashScreen": {
    "type": "flare",
    "data" : "assets/images/splashscreen.flr"
  },
  "OnBoarding": {
    "layout": "",
    "data": [
      {
        "title": "Welcome to FluxNews",
        "image": "assets/images/fogg-delivery-1.png",
        "desc": "FluxNews is on the way to serve you. ",
        "background": "#FFF3F2"
      },
      {
        "title": "Connect Surrounding World",
        "image": "assets/images/fogg-uploading-1.png",
        "desc": "See all things happening around you just by a click in your phone. Fast, convenient and clean.",
        "background": "#F2FFFC"
      },
      {
        "title": "Let's Get Started",
        "image": "assets/images/fogg-order-completed.png",
        "desc": "Waiting no more, let's see what we get!",
        "background": "#F9F2FF"
      }
    ]
  }
}
